…
For each (airport, day) contruct a tidy data set of the airport’s
“performance” as the proportion of flights that departed less than an
hour late.

    perf = flights %>% mutate(day_of_year = yday(time_hour)) %>% 
      group_by(origin, day_of_year) %>% 
      summarize(performance = mean(dep_delay<60, na.rm = T)) 
    perf

    ## # A tibble: 1,095 x 3
    ## # Groups:   origin [3]
    ##    origin day_of_year performance
    ##    <chr>        <dbl>       <dbl>
    ##  1 EWR              1       0.918
    ##  2 EWR              2       0.837
    ##  3 EWR              3       0.979
    ##  4 EWR              4       0.935
    ##  5 EWR              5       0.966
    ##  6 EWR              6       0.95 
    ##  7 EWR              7       0.921
    ##  8 EWR              8       0.982
    ##  9 EWR              9       0.976
    ## 10 EWR             10       0.980
    ## # … with 1,085 more rows
Construct a tidy data set to that give weather summaries for each
(airport, day). Use the total precipitation, minimum visibility, maximum
wind\_gust, and average wind\_speed.

    weat = weather %>% mutate(day_of_year = yday(time_hour)) %>%
      select(origin,day_of_year,precip,visib,wind_gust,wind_speed) %>% 
      filter(!is.na(wind_gust))%>% 
      group_by(origin,day_of_year) %>% 
      summarise(totalprecip = sum(precip,na.rm = T),
                minvisib=min(visib,na.rm = T),
                maxwind_gust=max(wind_gust,na.rm = T),
                avewind_speed=mean(wind_speed,na.rm = T))
    weat

    ## # A tibble: 797 x 6
    ## # Groups:   origin [3]
    ##    origin day_of_year totalprecip minvisib maxwind_gust avewind_speed
    ##    <chr>        <dbl>       <dbl>    <dbl>        <dbl>         <dbl>
    ##  1 EWR              1           0     10           26.5          15.8
    ##  2 EWR              2           0     10           26.5          13.8
    ##  3 EWR              4           0     10           31.1          18.0
    ##  4 EWR              5           0     10           26.5          12.3
    ##  5 EWR              6           0     10           19.6          14.4
    ##  6 EWR              7           0     10           24.2          13.3
    ##  7 EWR              8           0     10           25.3          15.0
    ##  8 EWR              9           0      9           20.7          12.7
    ##  9 EWR             10           0     10           26.5          12.8
    ## 10 EWR             14           0      0.5         27.6          10.6
    ## # … with 787 more rows

Construct a linear model to predict the performance of each
(airport,day) using the weather summaries and a “fixed effect” for each
airport. Display the summaries.

    dat = left_join(weat,perf)

    ## Joining, by = c("origin", "day_of_year")

    dat

    ## # A tibble: 797 x 7
    ## # Groups:   origin [3]
    ##    origin day_of_year totalprecip minvisib maxwind_gust avewind_speed
    ##    <chr>        <dbl>       <dbl>    <dbl>        <dbl>         <dbl>
    ##  1 EWR              1           0     10           26.5          15.8
    ##  2 EWR              2           0     10           26.5          13.8
    ##  3 EWR              4           0     10           31.1          18.0
    ##  4 EWR              5           0     10           26.5          12.3
    ##  5 EWR              6           0     10           19.6          14.4
    ##  6 EWR              7           0     10           24.2          13.3
    ##  7 EWR              8           0     10           25.3          15.0
    ##  8 EWR              9           0      9           20.7          12.7
    ##  9 EWR             10           0     10           26.5          12.8
    ## 10 EWR             14           0      0.5         27.6          10.6
    ## # … with 787 more rows, and 1 more variable: performance <dbl>
…
